テキストマイニング
…
dat <- gibasa::tokenize(dat_txt, text, doc_id)

reactable::reactable(dat, compact = TRUE)

dat |>
  gibasa::prettify(col_select = c("POS1", "Original")) |>
  dplyr::filter(POS1 %in% c("名詞", "形容詞", "副詞", "動詞"))

# A tibble: 1,023 × 6
   doc_id sentence_id token_id token POS1  Original
   <fct>        <int>    <int> <chr> <chr> <chr>   
 1 1                1        1 日本  名詞  日本    
 2 1                1        3 地域  名詞  地域    
 3 1                1        4 農業  名詞  農業    
 4 1                1        7 以下  名詞  以下    
 5 1                1        9 よう  名詞  よう    
 6 1                1       11 問題  名詞  問題    
 7 1                1       13 直面  名詞  直面    
 8 1                1       14 し    動詞  する    
 9 1                1       16 い    動詞  いる    
10 1                1       19 1     名詞  <NA>    
# ℹ 1,013 more rows

トークンをまとめて新しいトークンにすることができる。

reactable::reactable(gibasa::prettify(dat, col_select = c("POS1", "POS2", "POS3")), compact = TRUE)

reactable::reactable(gibasa::prettify(dat, col_select = c("POS1", "POS2", "POS3")), compact = FALSE)

dat |>
  gibasa::prettify(col_select = c("POS1", "POS2", "POS3", "Original")) |>
  gibasa::collapse_tokens(
    (POS1 %in% c("名詞", "形容詞", "副詞", "動詞") & !stringr::str_detect(token, "^[あ-ン]+$")) |
    (POS1 %in% c("名詞", "形容詞") & POS2 %in% c("自立", "接尾", "数接続"))
  )

# A tibble: 1,511 × 4
   doc_id sentence_id token_id token   
   <fct>        <int>    <int> <chr>   
 1 1                1        1 日本    
 2 1                1        2 の      
 3 1                1        3 地域農業
 4 1                1        4 は      
 5 1                1        5 、      
 6 1                1        6 以下    
 7 1                1        7 の      
 8 1                1        8 よう    
 9 1                1        9 な      
10 1                1       10 問題    
# ℹ 1,501 more rows
…
dat_count <- dat |>
  gibasa::prettify(col_select = c("POS1", "POS2", "POS3", "Original")) |>
  gibasa::collapse_tokens(
    (POS1 %in% c("名詞", "形容詞", "副詞", "動詞") & !stringr::str_detect(token, "^[ァ-ヴ\\s]+$")) |
    (POS1 %in% c("名詞", "形容詞") & POS2 %in% c("自立", "接尾", "数接続"))
  ) |>
  dplyr::mutate(
    doc_id = forcats::fct_drop(doc_id),
    token = token
  ) |>
  dplyr::count(doc_id, token)

dat_count

# A tibble: 572 × 3
   doc_id token             n
   <fct>  <chr>         <int>
 1 1      1.若者            1
 2 1      1.高齢化:日本     1
 3 1      2.農地            1
 4 1      2.農地集積        1
 5 1      3.小規模経営      1
 6 1      3.技術革新        1
 7 1      4.地域            1
 8 1      4.技術革新        1
 9 1      AI                1
10 1      、               19
# ℹ 562 more rows
…
