6 tidyverse | はじめてのR
…
dim(df)

## [1] 36  3

これをロングに変換すると次のようなデータフレームになります。

df_long <- tidyr::pivot_longer(df, cols = -year)
df_long

## # A tibble: 72 × 3
##     year name  value
##    <int> <chr> <dbl>
##  1  1990 南      100
##  2  1990 北     3600
##  3  1991 南      200
##  4  1991 北     3500
##  5  1992 南      300
##  6  1992 北     3400
##  7  1993 南      400
##  8  1993 北     3300
##  9  1994 南      500
## 10  1994 北     3200
## # ℹ 62 more rows
…
このように，tidyverse で列名を指定するときは，"" は必要ありません。
ただし，付けてもエラーにはなりません。

なお，tidyverse で作成したデータフレームは tibble になります。
tibble の便利な点は，head() や dim() をわざわざ実行しなくても，データフレームの概要が分かることです。

ggplot2 パッケージの ggplot() で図を描く場合，ロングの方がデータを扱いやすいです。
一方，lm() などの回帰分析にはワイドのデータが向いています。

ロングからワイドへの変換は次のようにします。

df_wide <- tidyr::pivot_wider(df_long, names_from = name)
df_wide

## # A tibble: 36 × 3
##     year    南    北
##    <int> <dbl> <dbl>
##  1  1990   100  3600
##  2  1991   200  3500
##  3  1992   300  3400
##  4  1993   400  3300
##  5  1994   500  3200
##  6  1995   600  3100
##  7  1996   700  3000
##  8  1997   800  2900
##  9  1998   900  2800
## 10  1999  1000  2700
## # ℹ 26 more rows
…
