まずは使ってみる
…
dim(iris)

[1] 150   5

iris_long <- tidyr::pivot_longer(iris, cols = Sepal.Length:Petal.Width)
iris_long

# A tibble: 600 × 3
   Species name         value
   <fct>   <chr>        <dbl>
 1 setosa  Sepal.Length   5.1
 2 setosa  Sepal.Width    3.5
 3 setosa  Petal.Length   1.4
 4 setosa  Petal.Width    0.2
 5 setosa  Sepal.Length   4.9
 6 setosa  Sepal.Width    3  
 7 setosa  Petal.Length   1.4
 8 setosa  Petal.Width    0.2
 9 setosa  Sepal.Length   4.7
10 setosa  Sepal.Width    3.2
# ℹ 590 more rows
…
dim(iris_wide)

[1] 3 5

tidyr::spread() と tidyr::gather() は superseded になっている（古い関数）ので，覚える必要はない。

1.1.3 separate()

tidyr::separate() は列を複数列に分割します。 ただし，superseded になっているため，次のようなコマンドで代替します。

iris |>
  dplyr::mutate(tmp = formatC(Sepal.Length, format = "f", digits = 1)) |>
  tidyr::separate_wider_delim(tmp, delim = ".", names = c("A", "B"))

# A tibble: 150 × 7
   Sepal.Length Sepal.Width Petal.Length Petal.Width Species A     B    
          <dbl>       <dbl>        <dbl>       <dbl> <fct>   <chr> <chr>
 1          5.1         3.5          1.4         0.2 setosa  5     1    
 2          4.9         3            1.4         0.2 setosa  4     9    
 3          4.7         3.2          1.3         0.2 setosa  4     7    
 4          4.6         3.1          1.5         0.2 setosa  4     6    
 5          5           3.6          1.4         0.2 setosa  5     0    
 6          5.4         3.9          1.7         0.4 setosa  5     4    
 7          4.6         3.4          1.4         0.3 setosa  4     6    
 8          5           3.4          1.5         0.2 setosa  5     0    
 9          4.4         2.9          1.4         0.2 setosa  4     4    
10          4.9         3.1          1.5         0.1 setosa  4     9    
# ℹ 140 more rows
…
